3 Multidimensional Exploration

In this second section, we simultaneously deal with several dimensions. Multidimensional plotting of variables is then possible.

3.1 Selecting two dimensions with select.dim

When selecting two dimensions (or more) with function select.dim, one ends up with a multidimensional representation of the corresponding variables. For example, in the code below, one selects dimensions week and country (in other words, dimension media is aggregated). Each observation hence gives the number of articles published during a given week and talking about a given country.

geomedia %>%
    select.dim (week, country) %>%
    arrange.elm (country, name) %>%
    arrange.elm (week, name) %>%
    as.data.frame ()

## # A tibble: 11,051 x 3
##    week       country articles
##    <date>     <chr>      <dbl>
##  1 2013-12-30 AFG        22   
##  2 2013-12-30 ARG         6   
##  3 2013-12-30 AUS        29.5 
##  4 2013-12-30 BEN         2   
##  5 2013-12-30 BGD        30   
##  6 2013-12-30 BGR         7.67
##  7 2013-12-30 BHS         2   
##  8 2013-12-30 BLR         0.5 
##  9 2013-12-30 BOL         2.5 
## 10 2013-12-30 BRA        10.5 
## # … with 11,041 more rows
…
