…
Getting Started

This tutorial assumes that you are familiar with the most known R packages of the tidyverse, in particular tibble operations provided by dplyr and the forward-pipe operator %>% provided by magrittr.

Importing the dataset

This tutorial presents a use case of the data.cube library on a dataset of 30M tweets published between January 2015 and July 2016, and relating to the European migrant crisis of 2015 (request: (e|im)?migrant(s)?). These tweets have been extracted with DMI-TCAT, a software designed by the Digital Methods Initiative, in the context of the H2020 ODYCCEUS Project.

First, import the main file of this dataset as a data.frame (actually, as a tibble):

library (readr)
df.tweets <- read_csv ('data/ODYCCEUS-migrant-crisis-tweets.csv')
df.tweets

## # A tibble: 18,061,367 x 7
##    day        from_user     type    to_user     hashtag     count weight
##    <date>     <chr>         <chr>   <chr>       <chr>       <dbl>  <dbl>
##  1 2015-01-01 031nikitaW    retweet KTLA        NULL            1  1    
##  2 2015-01-01 031nikitaW    retweet Telegraph   NULL            1  1    
##  3 2015-01-01 055Douglas    retweet mcspocky    Immigration     1  0.143
##  4 2015-01-01 055Douglas    retweet mcspocky    LibCrib         1  0.143
##  5 2015-01-01 055Douglas    retweet mcspocky    Politics        1  0.143
##  6 2015-01-01 055Douglas    retweet mcspocky    TNTweeters      1  0.143
##  7 2015-01-01 055Douglas    retweet mcspocky    TopProg         1  0.143
##  8 2015-01-01 055Douglas    retweet mcspocky    UniteBlue       1  0.143
##  9 2015-01-01 055Douglas    retweet mcspocky    p2              1  0.143
## 10 2015-01-01 07246361jorge retweet BBCBreaking NULL            1  1    
## #  with 18,061,357 more rows
…
Back to frame with as.data.frame

Function as.data.frame transforms a data.cube object back into a data.frame object (actually, a tibble).

dc.tweets %>% as.data.frame ()

## # A tibble: 18,061,367 x 7
##    day        from_user     type    to_user     hashtag     tweets count
##  * <date>     <chr>         <chr>   <chr>       <chr>        <dbl> <dbl>
##  1 2015-01-01 031nikitaW    retweet KTLA        NULL         1         1
##  2 2015-01-01 031nikitaW    retweet Telegraph   NULL         1         1
##  3 2015-01-01 055Douglas    retweet mcspocky    Immigration  0.143     1
##  4 2015-01-01 055Douglas    retweet mcspocky    LibCrib      0.143     1
##  5 2015-01-01 055Douglas    retweet mcspocky    Politics     0.143     1
##  6 2015-01-01 055Douglas    retweet mcspocky    TNTweeters   0.143     1
##  7 2015-01-01 055Douglas    retweet mcspocky    TopProg      0.143     1
##  8 2015-01-01 055Douglas    retweet mcspocky    UniteBlue    0.143     1
##  9 2015-01-01 055Douglas    retweet mcspocky    p2           0.143     1
## 10 2015-01-01 07246361jorge retweet BBCBreaking NULL         1         1
## #  with 18,061,357 more rows
…
dc.day.hashtag %>% summary ()

## data.cube of 2 dimensions and 2 variables
## - dim day     ->    353 elms (Date)
## - dim hashtag -> 245664 elms (character)
## - var tweets  -> day x hashtag (numeric)
## - var count   -> day x hashtag (numeric)

dc.day.hashtag %>% as.data.frame ()

## # A tibble: 1,079,500 x 4
##    day        hashtag               tweets count
##    <date>     <chr>                  <dbl> <dbl>
##  1 2015-01-01               0.25     1
##  2 2015-01-01           0.25     1
##  3 2015-01-01           1        1
##  4 2015-01-01 01_January              1        1
##  5 2015-01-01 1amThoughts             1        1
##  6 2015-01-01 1u                      1        1
##  7 2015-01-01 1U                      0.5      1
##  8 2015-01-01 24HrsOfRadissonSweeps   2        4
##  9 2015-01-01 2A                      1.29     3
## 10 2015-01-01 2nd                     0.5      1
## #  with 1,079,490 more rows
…
Who is retweeting whom?

This next section deals with another subset of the data.cube dimensions, that is the retweet relation between users: Who is retweeting whom?

Joining cubes to exploit other variables

Because out initial data.cube contains dc.tweets %>% elm.nb (user) = 4738410 users, which is quite huge for a first exploration, we choose to reduce this number by only retaining most influential users. To do so, we exploit another variable, that is the number of followers of each user.

This variable is first imported from another data.frame.

df.users <- read_csv ('data/ODYCCEUS-migrant-crisis-users.csv')
df.users

## # A tibble: 4,738,408 x 3
##    user           tweetcount followercount
##    <chr>               <dbl>         <dbl>
##  1 user1                  50            43
##  2 user2                  98            10
##  3 user3                 162            67
##  4 ALLYSJAUREGUll      21768          2122
##  5 user4                4713           550
##  6 amandinechlt        28182          4636
##  7 stylespedreiro      93426          2545
##  8 rifatbasaran         1812          2225
##  9 user5               13598            61
## 10 user6                9460            34
## #  with 4,738,398 more rows
…
What is related to what?

dc.month.user <-
    dc.tweets %>%
    filter.elm (type, type %in% c ('tweet', 'reply')) %>%
    filter.elm (user, followercount >= 1000 | user == 'NULL') %>%
    filter.elm (hashtag, hashtag != 'NULL') %>%
    transmute.var (text = hashtag, size = 1) %>%
    group.day.elm (month) %>%
    select.dim (month, from_user)
    
dc.month.user %>% as.data.frame ()

## # A tibble: 250,658 x 4
##    month      from_user     text                                       size
##    <date>     <chr>         <chr>                                     <dbl>
##  1 2015-01-01 0ozes         openbordersforisrael                          1
##  2 2015-01-01 1954candanga  Italy Italy China Syria BREAKING World C     8
##  3 2015-01-01 1catherinesi tcot tcot Catholic ccot PRAY persecution     7
##  4 2015-01-01 24NewsLive    News News News News News News News News      9
##  5 2015-01-01 2ANow         2A 2A 2A 2A 2A 2A 2A 2A 2A 2A 2A 2A 2A 2    15
##  6 2015-01-01 2tweetaboutit UKIP UKIP UKIP UKIP opendoorimmigration      6
##  7 2015-01-01 365Arizona    TeaParty TeaParty TeaParty TeaParty TeaP    38
##  8 2015-01-01 4nnak         OperacaoBetaLab OperacaoBetaLab Operacao    27
##  9 2015-01-01 52DNorth      ModernBritain                                 1
## 10 2015-01-01 55krissi55    bbcnews RoadToRuin FinishTheTories Torie     9
## #  with 250,648 more rows
…
