A Tutorial for the data.cube Library
…
Back to frame with as.data.frame

Function as.data.frame transforms a data.cube object back into a data.frame object (actually, a tibble).

geomedia %>% as.data.frame

## # A tibble: 95,674 x 4
##    media             week       country articles
##    <chr>             <date>     <chr>      <dbl>
##  1 en_NZL_nzhera_int 2015-06-01 SVK        0.333
##  2 en_NZL_nzhera_int 2015-03-09 VEN       10.5  
##  3 es_VEN_univer_int 2014-05-19 LBY        9    
##  4 en_MYS_starmy_int 2014-10-13 PSE        9    
##  5 en_NZL_nzhera_int 2014-06-09 GTM        1.5  
##  6 en_MYS_starmy_int 2015-06-22 ARG        3    
##  7 en_USA_wapost_int 2015-01-05 ARM        0.5  
##  8 es_VEN_univer_int 2014-05-26 AFG        4.5  
##  9 en_GBR_dailyt_int 2015-05-04 NRU        1    
## 10 fr_BEL_derheu_int 2014-06-16 MEX        0.333
## #  with 95,664 more rows

Unidimensional Exploration

In this first section, we focus on the exploration of one dimension of the data.cube. Multidimensional exploration is demonstrated later.

Selecting one dimension with select.dim

One first needs to select the dimension of interest using function select.dim. In this example, we focus on the datasets temporal dimension, a.k.a. dimension week.

geomedia %>%
    select.dim (week) %>%
    as.data.frame

## # A tibble: 79 x 2
##    week       articles
##    <date>        <dbl>
##  1 2015-06-01    5706.
##  2 2015-03-09    6316.
##  3 2014-05-19    5857.
##  4 2014-10-13    6006.
##  5 2014-06-09    5172.
##  6 2015-06-22    6738.
##  7 2015-01-05    5607.
##  8 2014-05-26    5260.
##  9 2015-05-04    6368.
## 10 2014-06-16    3384.
## #  with 69 more rows

The resulting data.cube consists in a unidimensional data structure where variable articles has been aggregated (summed) along dimensions media and country. The resulting data.frame hence gives the total number of published articles corresponding to each element of dimension week.

Arranging elements with arrange.elm

Note that above, observations have no particular order. Function arrange.elm reorders elements of a given dimension according to one (or several) of their variables. For example, the lexicographic order of their name (standard variable created for each dimension when instantiating the data.cube) which happens to also be the chronological order.

geomedia %>%
    select.dim (week) %>%
    arrange.elm (week, name) %>%
    as.data.frame

## # A tibble: 79 x 2
##    week       articles
##    <date>        <dbl>
##  1 2013-12-30    1671.
##  2 2014-01-06    2983.
##  3 2014-01-13    3172.
##  4 2014-01-20    3519.
##  5 2014-01-27    3073.
##  6 2014-02-03    2972.
##  7 2014-02-10    3012.
##  8 2014-02-17    2881.
##  9 2014-02-24    3313.
## 10 2014-03-03    3573.
## #  with 69 more rows
…
Multidimensional Exploration

In this second section, we simultaneously deal with several dimensions. Multidimensional plotting of variables is then possible.

Selecting two dimensions with select.dim

When selecting two dimensions (or more) with function select.dim, one ends up with a multidimensional representation of the corresponding variables. For example, in the code below, one selects dimensions week and country (in other words, dimension media is aggregated). Each observation hence gives the number of articles published during a given week and talking about a given country.

geomedia %>%
    select.dim (week, country) %>%
    arrange.elm (country, name) %>%
    arrange.elm (week, name) %>%
    as.data.frame

## # A tibble: 11,051 x 3
##    week       country articles
##    <date>     <chr>      <dbl>
##  1 2013-12-30 AFG        22   
##  2 2013-12-30 ARG         6   
##  3 2013-12-30 AUS        29.5 
##  4 2013-12-30 BEN         2   
##  5 2013-12-30 BGD        30   
##  6 2013-12-30 BGR         7.67
##  7 2013-12-30 BHS         2   
##  8 2013-12-30 BLR         0.5 
##  9 2013-12-30 BOL         2.5 
## 10 2013-12-30 BRA        10.5 
## #  with 11,041 more rows
…
