…
1.5 Back to frame with as.data.frame

Function as.data.frame transforms a data.cube object back into a data.frame object (actually, a tibble).

geomedia %>% as.data.frame ()

## # A tibble: 95,674 x 4
##    media             week       country articles
##    <chr>             <date>     <chr>      <dbl>
##  1 en_NZL_nzhera_int 2015-06-01 SVK        0.333
##  2 en_NZL_nzhera_int 2015-03-09 VEN       10.5  
##  3 es_VEN_univer_int 2014-05-19 LBY        9    
##  4 en_MYS_starmy_int 2014-10-13 PSE        9    
##  5 en_NZL_nzhera_int 2014-06-09 GTM        1.5  
##  6 en_MYS_starmy_int 2015-06-22 ARG        3    
##  7 en_USA_wapost_int 2015-01-05 ARM        0.5  
##  8 es_VEN_univer_int 2014-05-26 AFG        4.5  
##  9 en_GBR_dailyt_int 2015-05-04 NRU        1    
## 10 fr_BEL_derheu_int 2014-06-16 MEX        0.333
## # … with 95,664 more rows
